<svg xmlns="http://www.w3.org/2000/svg" viewBox="0 0 147 147.53">
    <defs>
        <style>.cls-1{fill:#971ed3;}</style>
    </defs>
    <g id="Calque_2_add">
        <g id="Calque_1-2_add">
            <path class="cls-1" d="M73.5,147.53a7.27,7.27,0,0,1-7.5-7V7A7.52,7.52,0,0,1,81,7V140.52A7.27,7.27,0,0,1,73.5,147.53Z"/>
            <path class="cls-1" d="M139.5,81.26H7.5a7.5,7.5,0,0,1,0-15h132a7.5,7.5,0,0,1,0,15Z"/>
        </g>
    </g>
</svg>
